{
  "music.game.nether": {
    "category": "music",
	"sounds": [
	  {
	    "name": "music/game/nether/scarynyan",
		"stream": true
	  }
	]
  },
  "entity.zombie_pig.ambient": {
    "category": "voice",
    "replace": "true",
    "sounds": [
      "entity/zombie_pig/ambient"
    ]
  },
    "entity.zombie_pig.death": {
    "category": "voice",
    "replace": "true",
    "sounds": [
      "entity/zombie_pig/death"
    ]
  },
    "entity.zombie_pig.hurt": {
    "category": "voice",
    "replace": "true",
    "sounds": [
      "entity/zombie_pig/hurt"
    ]
  },
  "entity.zombie_pig.angry": {
    "category": "voice",
    "replace": "true",
    "sounds": [
      "entity/zombie_pig/warn"
    ]
  },
    "entity.zombie_pig.step": {
    "category": "voice",
    "replace": "true",
    "sounds": [
      "entity/zombie_pig/step"
    ]
  },
  "entity.zombie.ambient": {
    "category": "voice",
    "replace": "true",
    "sounds": [
      "entity/zombie/ambient"
    ]
  },
    "entity.zombie.death": {
    "category": "voice",
    "replace": "true",
    "sounds": [
      "entity/zombie/death"
    ]
  },
    "entity.zombie.hurt": {
    "category": "voice",
    "replace": "true",
    "sounds": [
      "entity/zombie/hurt"
    ]
  },
    "entity.zombie.step": {
    "category": "voice",
    "replace": "true",
    "sounds": [
      "entity/zombie_pig/step"
    ]
  },
    "entity.zombie_villager.ambient": {
    "category": "voice",
    "replace": "true",
    "sounds": [
      "entity/zombie/ambient"
    ]
  },
    "entity.zombie_villager.death": {
    "category": "voice",
    "replace": "true",
    "sounds": [
      "entity/zombie/death"
    ]
  },
    "entity.zombie_villager.hurt": {
    "category": "voice",
    "replace": "true",
    "sounds": [
      "entity/zombie/hurt"
    ]
  },
    "entity.zombie_villager.step": {
    "category": "voice",
    "replace": "true",
    "sounds": [
      "entity/zombie/step"
    ]
  },
    "entity.husk.ambient": {
    "category": "voice",
    "replace": "true",
    "sounds": [
      "entity/zombie/ambient"
    ]
  },
    "entity.husk.death": {
    "category": "voice",
    "replace": "true",
    "sounds": [
      "entity/zombie/death"
    ]
  },
    "entity.husk.hurt": {
    "category": "voice",
    "replace": "true",
    "sounds": [
      "entity/zombie/hurt"
    ]
  },
    "entity.husk.step": {
    "category": "voice",
    "replace": "true",
    "sounds": [
      "entity/zombie/step"
    ]
  },
  "entity.endermen.death": {
    "category": "hostile",
    "replace": "true",
    "sounds": [
      "entity/endermen/death"
    ]
  },
  "entity.endermen.stare": {
    "category": "voice",
    "replace": "true",
    "sounds": [
      "entity/endermen/stare"
    ]
  },
    "entity.endermen.hurt": {
    "category": "voice",
    "replace": "true",
    "sounds": [
      "entity/endermen/hurt"
    ]
  },    
    "entity.endermen.scream": {
    "category": "hostile",
    "replace": "true",
    "sounds": [
      "entity/endermen/scream"
    ]
  },
  "entity.endermen.teleport": {
    "category": "hostile",
    "replace": "true",
    "sounds": [
      "entity/endermen/teleport"
    ]
  },
  "entity.witch.death": {
    "category": "hostile",
    "replace": "true",
    "sounds": [
      "entity/endermen/death"
    ]
  },
  "entity.witch.warn": {
    "category": "voice",
    "replace": "true",
    "sounds": [
      "entity/endermen/stare"
    ]
  },
    "entity.witch.hurt": {
    "category": "voice",
    "replace": "true",
    "sounds": [
      "entity/endermen/hurt"
    ]
  }, 
    "entity.witch.ambient": {
    "category": "voice",
    "replace": "true",
    "sounds": [
      "entity/endermen/stare"
    ]
  },    
  "entity.ghast.death": {
    "category": "hostile",
    "replace": "true",
    "sounds": [
      "entity/ghast/death"
    ]
  },
  "entity.ghast.ambient": {
    "category": "voice",
    "replace": "true",
    "sounds": [
      "entity/ghast/poo-noodles"
    ]
  },
    "entity.ghast.hurt": {
    "category": "hostile",
    "replace": "true",
    "sounds": [
      "entity/ghast/hurt"
    ]
  },    
    "entity.ghast.warn": {
    "category": "voice",
    "replace": "true",
    "sounds": [
      "entity/ghast/warn",
	  "entity/ghast/ambient"
    ]
  }
}
